\relax 
\providecommand\hyper@newdestlabel[2]{}
\providecommand\HyperFirstAtBeginDocument{\AtBeginDocument}
\HyperFirstAtBeginDocument{\ifx\hyper@anchor\@undefined
\global\let\oldcontentsline\contentsline
\gdef\contentsline#1#2#3#4{\oldcontentsline{#1}{#2}{#3}}
\global\let\oldnewlabel\newlabel
\gdef\newlabel#1#2{\newlabelxx{#1}#2}
\gdef\newlabelxx#1#2#3#4#5#6{\oldnewlabel{#1}{{#2}{#3}}}
\AtEndDocument{\ifx\hyper@anchor\@undefined
\let\contentsline\oldcontentsline
\let\newlabel\oldnewlabel
\fi}
\fi}
\global\let\hyper@last\relax 
\gdef\HyperFirstAtBeginDocument#1{#1}
\providecommand*\HyPL@Entry[1]{}
\citation{royen2010real}
\citation{rudin1964principles}
\HyPL@Entry{0<</S/D>>}
\@writefile{toc}{\contentsline {section}{\numberline {1}The Real Numbers: Sets, Sequences, and Functions}{2}{section.1}}
\@writefile{toc}{\contentsline {subsection}{\numberline {1.4}Open Sets, Closed Sets, and Borel Sets of Real Numbers}{2}{subsection.1.4}}
\@writefile{toc}{\contentsline {subsection}{\numberline {1.6}Continuous Real-Valued Funtions of a Real Variable}{2}{subsection.1.6}}
\@writefile{toc}{\contentsline {section}{\numberline {2}Lebesgue Measure}{3}{section.2}}
\@writefile{toc}{\contentsline {subsection}{\numberline {2.1}Introduction}{3}{subsection.2.1}}
\@writefile{toc}{\contentsline {subsection}{\numberline {2.2}Lebesgue outer measure}{4}{subsection.2.2}}
\@writefile{toc}{\contentsline {subsection}{\numberline {2.3}The $\sigma $-Algebra of Lebesgue Measurable Sets}{5}{subsection.2.3}}
\bibstyle{unsrt}
\bibdata{main}
\bibcite{royen2010real}{1}
\bibcite{rudin1964principles}{2}
