\contentsline {section}{\numberline {1}The Real Numbers: Sets, Sequences, and Functions}{2}{section.1}
\contentsline {subsection}{\numberline {1.4}Open Sets, Closed Sets, and Borel Sets of Real Numbers}{2}{subsection.1.4}
\contentsline {subsection}{\numberline {1.6}Continuous Real-Valued Funtions of a Real Variable}{2}{subsection.1.6}
\contentsline {section}{\numberline {2}Lebesgue Measure}{3}{section.2}
\contentsline {subsection}{\numberline {2.1}Introduction}{3}{subsection.2.1}
\contentsline {subsection}{\numberline {2.2}Lebesgue outer measure}{4}{subsection.2.2}
\contentsline {subsection}{\numberline {2.3}The $\sigma $-Algebra of Lebesgue Measurable Sets}{5}{subsection.2.3}
